{
  "extends": ["tslint:recommended", "tslint-react", "tslint-config-prettier"],
  "linterOptions": {
    "exclude": [
      "config/**/*.js",
      "node_modules/**/*.ts",
      "coverage/lcov-report/*.js"
    ]
  },

  "rules": {
    "object-literal-sort-keys": [
      true,
      "ignore-case",
      "match-declaration-order",
      "shorthand-first"
    ],

    "no-shadowed-variable": [
      true,
      {
        "class": true,
        "enum": true,
        "function": true,
        "interface": false,
        "namespace": true,
        "typeAlias": false,
        "typeParameter": false
      }
    ],
  "jsx-no-lambda" :false
  }
}
